<svg width="16" height="16" viewBox="0 0 16 16" fill="none" xmlns="http://www.w3.org/2000/svg">
<path d="M15.6661 4.84554C15.575 4.50632 15.3964 4.19697 15.1482 3.94846C14.9 3.69994 14.5909 3.52097 14.2518 3.42946C13.0036 3.09375 8 3.09375 8 3.09375C8 3.09375 2.99643 3.09375 1.74821 3.42768C1.40897 3.51889 1.09969 3.69776 0.851439 3.94632C0.603191 4.19488 0.424713 4.50439 0.333929 4.84375C-6.81196e-08 6.09375 0 8.70089 0 8.70089C0 8.70089 -6.81196e-08 11.308 0.333929 12.5563C0.517857 13.2455 1.06071 13.7884 1.74821 13.9723C2.99643 14.308 8 14.308 8 14.308C8 14.308 13.0036 14.308 14.2518 13.9723C14.9411 13.7884 15.4821 13.2455 15.6661 12.5563C16 11.308 16 8.70089 16 8.70089C16 8.70089 16 6.09375 15.6661 4.84554ZM6.41071 11.0938V6.30804L10.5536 8.68304L6.41071 11.0938Z" fill="#676767"/>
</svg>
