<svg width="1920" height="2252" viewBox="1160 -1000 1920 2252" fill="none" xmlns="http://www.w3.org/2000/svg">
    <path d="M1323.84 650.547L1408.83 -6229.61C1410.01 -6324.61 1230.57 -6364.59 1588.27 -6289.1L7876.86 1137.79C7933.2 2011.5 7867.51 2115.54 7776.74 2096.36L1403.16 749.622C1356.46 739.755 1323.25 698.268 1323.84 650.547Z" fill="#FFFFFF"/>
</svg>
